{
    "code":0,
    "page":{
        "pageNum":1,
        "pageSize":5,
        "pages":12,
        "startRow":0,
        "total":7
    },
    "data":[
        {
            "model":"订单信息",
            "modelcontent":[
                {
                    "name":"业务来源",
                    "value":"1",
                    "type":"1"
                },
                {
                    "name":"业务模式",
                    "value":"1",
                    "type":"1"
                },
                {
                    "name":"牌照类型",
                    "value":"浙A",
                    "type":"0"
                }
            ]
        },
        {
            "model":"购车信息",
            "modelcontent":[
                {
                    "name":"业务来源",
                    "value":"1",
                    "type":"1"
                },
                {
                    "name":"业务模式",
                    "value":"1",
                    "type":"1"
                },
                {
                    "name":"牌照类型",
                    "value":"浙A",
                    "type":"0"
                }
            ]
        }
    ],
    "extendData":[

    ],
    "msg":"success"
}